{
    "id": "org.kde.dolphin",
    "branch": "master",
    "runtime": "org.kde.Platform",
    "runtime-version": "5.15",
    "sdk": "org.kde.Sdk",
    "command": "dolphin",
    "tags": ["nightly"],
    "desktop-file-name-suffix": " (Nightly)",
    "finish-args": ["--share=ipc", "--socket=x11", "--socket=wayland", "--filesystem=host" ],

    "modules": [
        {
            "name": "lmdb",
            "sources": [ { "type": "git", "url": "git://github.com/LMDB/lmdb.git", "branch": "LMDB_0.9.24"}],
            "no-autogen": true,
            "make-install-args": ["prefix=/app"],
            "subdir" : "libraries/liblmdb"
        },
        {
            "config-opts": ["-DENABLE_TESTING=OFF" , "-DLMDB_DIR=/app"],
            "name": "baloo",
            "buildsystem": "cmake-ninja",
	    "builddir": true,
            "sources": [ { "type": "git", "url": "https://invent.kde.org/frameworks/baloo.git", "branch": "v5.85.0" } ]
        },
        {
            "config-opts": ["-DENABLE_TESTING=OFF" , "-DLMDB_DIR=/app"],
            "name": "baloo-widgets",
            "buildsystem": "cmake-ninja",
	    "builddir": true,
            "sources": [ { "type": "git", "url": "https://invent.kde.org/libraries/baloo-widgets.git" } ]
        },
        {
            "name": "dolphin",
            "buildsystem": "cmake-ninja",
	    "builddir": true,
            "sources": [ { "type": "git", "url": "https://invent.kde.org/system/dolphin.git" },
                         {"type": "patch", "path": "dolphinpatch.patch"}
                       ]
        },
        {
            "name": "dolphin-plugins",
            "buildsystem": "cmake-ninja",
	    "builddir": true,
            "sources": [ { "type": "git", "url": "https://invent.kde.org/sdk/dolphin-plugins.git" } ]
        }
    ]
}
